…
## Arguments

- paper:

  a paper or paperlist

## Value

a table with paper_id column

## Examples

``` r
paper_id(psychsci)
#> # A tibble: 250 × 1
#>    paper_id        
#>    <chr>           
#>  1 0956797613520608
#>  2 0956797614522816
#>  3 0956797614527830
#>  4 0956797614557697
#>  5 0956797614560771
#>  6 0956797614566469
#>  7 0956797615569001
#>  8 0956797615569889
#>  9 0956797615583071
#> 10 0956797615588467
#> # ℹ 240 more rows
```
